^C:\USERS\BALEX\DESKTOP\PROIECT\PROIECT\GLAD.C
/c /IC:\USERS\BALEX\DESKTOP\PROIECT\PROIECT\..\EXTERN\FREEGLUT\INCLUDE /IC:\USERS\BALEX\DESKTOP\PROIECT\PROIECT\..\EXTERN\ASSIMP\INCLUDE /IC:\USERS\BALEX\DESKTOP\PROIECT\PROIECT\..\EXTERN\GLFW\INCLUDE /IC:\USERS\BALEX\DESKTOP\PROIECT\PROIECT\..\EXTERN /IC:\USERS\BALEX\DESKTOP\PROIECT\PROIECT\..\EXTERN\GLEW\INCLUDE /IC:\USERS\BALEX\DESKTOP\PROIECT\PROIECT\..\EXTERN\STB /IC:\USERS\BALEX\DESKTOP\PROIECT\PROIECT\..\EXTERN\GLAD\INCLUDE /ZI /JMC /nologo /W3 /WX- /diagnostics:classic /sdl /Od /D _MBCS /Gm- /EHsc /RTC1 /MDd /GS /fp:precise /permissive- /Zc:wchar_t /Zc:forScope /Zc:inline /Fo"X64\DEBUG\\" /Fd"X64\DEBUG\VC141.PDB" /Gd /TC /FC C:\USERS\BALEX\DESKTOP\PROIECT\PROIECT\GLAD.C
^C:\USERS\BALEX\DESKTOP\PROIECT\PROIECT\MAIN.CPP
/c /IC:\USERS\BALEX\DESKTOP\PROIECT\PROIECT\..\EXTERN\FREEGLUT\INCLUDE /IC:\USERS\BALEX\DESKTOP\PROIECT\PROIECT\..\EXTERN\ASSIMP\INCLUDE /IC:\USERS\BALEX\DESKTOP\PROIECT\PROIECT\..\EXTERN\GLFW\INCLUDE /IC:\USERS\BALEX\DESKTOP\PROIECT\PROIECT\..\EXTERN /IC:\USERS\BALEX\DESKTOP\PROIECT\PROIECT\..\EXTERN\GLEW\INCLUDE /IC:\USERS\BALEX\DESKTOP\PROIECT\PROIECT\..\EXTERN\STB /IC:\USERS\BALEX\DESKTOP\PROIECT\PROIECT\..\EXTERN\GLAD\INCLUDE /ZI /JMC /nologo /W3 /WX- /diagnostics:classic /sdl /Od /D _MBCS /Gm- /EHsc /RTC1 /MDd /GS /fp:precise /permissive- /Zc:wchar_t /Zc:forScope /Zc:inline /Fo"X64\DEBUG\\" /Fd"X64\DEBUG\VC141.PDB" /Gd /TP /FC C:\USERS\BALEX\DESKTOP\PROIECT\PROIECT\MAIN.CPP
